{
	"pages": [ //pages数组中第一项表示应用启动页,

		//#ifdef MP-WEIXIN 

		{
			"path": "pages/home/main",
			"style": {
				"navigationBarTitleText": "首页",
				"enablePullDownRefresh": false
			}
		},
		//#endif 
		//#ifdef H5 
		{
			"path": "pages/home/main",
			"style": {
				"navigationBarTitleText": "首页",
				"enablePullDownRefresh": true 
			}
		},
		//#endif 
		{
			"path": "pages/home/classifies",
			"style": {
				"navigationBarTitleText": "分类",
				"enablePullDownRefresh": false,
				"titleNView": false
			}
		},
		{
			"path": "pages/home/cart",
			"style": {
				"navigationBarTitleText": "购物车",
				"enablePullDownRefresh": false
			}
		},

		{
			"path": "pages/home/user",
			"style": {
				"navigationBarTitleText": "我的",
				"enablePullDownRefresh": false,
				"app-plus": {
					"bounce": true,
					"titleNView": false
				}
			}
		}

	],

	"subPackages": [

		//分类部分
		{
			"root": "pages/classify",
			"pages": [{
					"path": "products/products",
					"style": {
						"navigationBarTitleText": "分类产品",
						"enablePullDownRefresh": false
					}
				},
				{
					"path": "products_s/products_s",
					"style": {
						"navigationBarTitleText": "分类产品",
						"enablePullDownRefresh": false
					}
				}
			]
		},

		//角色身份部分
		{
			"root": "pages/role",
			"pages": [{
					"path": "login/login",
					"style": {
						"navigationBarTitleText": "手机登录",
						"enablePullDownRefresh": false
					}
				},
				{
					"path": "reg/reg",
					"style": {
						"navigationBarTitleText": "注册",
						"enablePullDownRefresh": false
					}
				},
				{
					"path": "pwd/pwd",
					"style": {
						"navigationBarTitleText": "找回密码",
						"enablePullDownRefresh": false
					}
				},
				{
					"path": "bund/bund",
					"style": {
						"navigationBarTitleText": "绑定手机号",
						"enablePullDownRefresh": false
					}
				},
				{
					"path": "pLogin/pLogin",
					"style": {
						"navigationBarTitleText": "密码登录",
						"enablePullDownRefresh": false
					}
				},
				{
					"path": "loginNext/loginNext",
					"style": {
						"navigationBarTitleText": "输入验证码",
						"enablePullDownRefresh": false
					}
				},
				{
					"path": "wxLogin/wxLogin",
					"style": {
						"navigationBarTitleText": "微信一键登录",
						"enablePullDownRefresh": false
					}
				},
				{
					"path": "replacePhone/replacePhone",
					"style": {
						"navigationBarTitleText": "修改手机号",
						"enablePullDownRefresh": false
					}
				},
				{
					"path": "updatedPass/updatedPass",
					"style": {
						"navigationBarTitleText": "修改登录密码",
						"enablePullDownRefresh": false
					}
				}

			]
		},

		//用户信息部分
		{
			"root": "pages/user",
			"pages": [{
					"path": "set/set",
					"style": {
						"navigationBarTitleText": "设置",
						"enablePullDownRefresh": false
					}
				},


				{
					"path": "person/person",
					"style": {
						"navigationBarTitleText": "个人信息",
						"enablePullDownRefresh": false
					}
				},

				{
					"path": "mpn/mpn",
					"style": {
						"navigationBarTitleText": "",
						"enablePullDownRefresh": false
					}
				},
				{
					"path": "notes/notes",
					"style": {
						"navigationBarTitleText": "",
						"enablePullDownRefresh": false
					}
				},
				{
					"path": "setPayPass/setPayPass",
					"style": {
						"navigationBarTitleText": "修改密码",
						"enablePullDownRefresh": false
					}
				}


			]
		},

		// // 业务功能部分
		{
			"root": "pages/features",
			"pages": [{
					"path": "hpShare/hpShare",
					"style": {
						"navigationBarTitleText": "分享",
						"enablePullDownRefresh": false
					}
				},
				{
					"path": "order/order",
					"style": {
						"navigationBarTitleText": "我的订单",
						"enablePullDownRefresh": true
					}
				},
				{
					"path": "authentication/authentication",
					"style": {
						"navigationBarTitleText": "实名认证",
						"enablePullDownRefresh": false
					}
				},
				{
					"path": "comment/comment",
					"style": {
						"navigationBarTitleText": "意见反馈",
						"enablePullDownRefresh": false
					}
				},
				{
					"path": "bank/bank",
					"style": {
						"navigationBarTitleText": "银行卡",
						"enablePullDownRefresh": false
					}
				},
				{
					"path": "adress/adress",
					"style": {
						"navigationBarTitleText": "收货地址",
						"enablePullDownRefresh": false
					}
				},
				{
					"path": "newAdress/newAdress",
					"style": {
						"navigationBarTitleText": "新建地址",
						"enablePullDownRefresh": false
					}
				},
				{
					"path": "bank/newBank/newBank",
					"style": {
						"navigationBarTitleText": "添加银行卡",
						"enablePullDownRefresh": false
					}
				},
				{
					"path": "success/success",
					"style": {
						"navigationBarTitleText": "支付成功",
						"enablePullDownRefresh": false
					}
				},
				{
					"path": "attention/attention",
					"style": {
						"navigationBarTitleText": "关注",
						"enablePullDownRefresh": false
					}
				},

				{
					"path": "order/orderDetail/orderDetail",
					"style": {
						"navigationBarTitleText": "订单详情",
						"enablePullDownRefresh": false
					}
				},
				{
					"path": "ems/ems",
					"style": {
						"navigationBarTitleText": "物流信息",
						"enablePullDownRefresh": false
					}
				},
				{
					"path": "createOrder/createOrder",
					"style": {
						"navigationBarTitleText": "提交订单",
						"enablePullDownRefresh": false
					}
				},
				{
					"path": "refundList/refundList",
					"style": {
						"navigationBarTitleText": "退货/退款",
						"enablePullDownRefresh": false
					}
				},
				{
					"path": "refundDetail/refundDetail",
					"style": {
						"navigationBarTitleText": "退款详情",
						"enablePullDownRefresh": false
					}
				},
				{
					"path": "refundAction/refundAction",
					"style": {
						"navigationBarTitleText": "退货退款",
						"enablePullDownRefresh": false
					}
				},
				{
					"path": "refundApply/refundApply",
					"style": {
						"navigationBarTitleText": "退款申请",
						"enablePullDownRefresh": false
					}
				},
				{
					"path": "refundProgress/refundProgress",
					"style": {
						"navigationBarTitleText": "退款进度",
						"enablePullDownRefresh": false
					}
				},
				{
					"path": "refundEms/refundEms",
					"style": {
						"navigationBarTitleText": "退款物流",
						"enablePullDownRefresh": false
					}
				},
				{
					"path": "flashSale/flashSale",
					"style": {
						"navigationBarTitleText": "",
						"enablePullDownRefresh": false
					}
				},
				{
					"path": "share/share",
					"style": {
						"navigationBarTitleText": "分享",
						"enablePullDownRefresh": false
					}
				},
				{
					"path": "help/help",
					"style": {
						"navigationBarTitleText": "使用帮助",
						"enablePullDownRefresh": false
					}
				}
			]
		},


		// 首页展示功能部分
		{
			"root": "pages/main",
			"pages": [{
					"path": "choiceness/choiceness",
					"style": {
						"navigationBarTitleText": "精选",
						"enablePullDownRefresh": true
					}
				},
				// {
				// 	"path": "youDian/youDian",
				// 	"style": {
				// 		"navigationBarTitleText": "优店",
				// 		"enablePullDownRefresh": true

				// 	}
				// },
				{
					"path": "store/store",
					"style": {
						"navigationBarTitleText": "店铺列表",
						"enablePullDownRefresh": true
					}
				},
				// {
				// 	"path": "store/product/product",
				// 	"style": {
				// 		"navigationBarTitleText": "商品详情",
				// 		"enablePullDownRefresh": true
				// 	}
				// },
				{
					"path": "search/search",
					"style": {
						"navigationBarTitleText": "搜索",
						"enablePullDownRefresh": true
					}
				},
				{
					"path": "hots/hots",
					"style": {
						"navigationBarTitleText": "热销",
						"enablePullDownRefresh": true
					}
				},
				{
					"path": "note/note",
					"style": {
						"navigationBarTitleText": "隐私条款",
						"enablePullDownRefresh": false
					}
				},
				{
					"path": "helps/helps",
					"style": {
						"navigationBarTitleText": "新手引导",
						"enablePullDownRefresh": false
					}
				},
				{
					"path": "details/details",
					"style": {
						"navigationBarTitleText": "商品详情",
						"enablePullDownRefresh": false
					}
				},
				{
					"path": "errors/errors",
					"style": {
						"navigationBarTitleText": "奔溃啦",
						"titleNView": {
							"backgroundColor": "#039798"
						}
					}
				},
				{
					"path": "success/success",
					"style": {
						"navigationBarTitleText": "支付结果",
						"titleNView": false

					}
				}

			]
		}

	],
	"lazyCodeLoading": "requiredComponents",
	"tabBar": {
		"color": "#999",
		"selectedColor": "#039798",
		"backgroundColor": "#ffffff",
		"list": [{
				"pagePath": "pages/home/main",
				"text": "首页",
				"iconPath": "static/img/tb_sy_wxz.png",
				"selectedIconPath": "static/img/tb_sy_xz.png"
			}, {
				"pagePath": "pages/home/classifies",
				"text": "分类",
				"iconPath": "static/img/tb_fl_wxz.png",
				"selectedIconPath": "static/img/tb_fl_xz.png"
			},
			{
				"pagePath": "pages/home/cart",
				"text": "购物车",
				"iconPath": "static/img/tb_gwc_wxz.png",
				"selectedIconPath": "static/img/tb_gwc_xz.png"
			},
			{
				"pagePath": "pages/home/user",
				"text": "我的",
				"iconPath": "static/img/tb_wd_wxz.png",
				"selectedIconPath": "static/img/tb_wd_xz.png"
			}
		]
	},
	"globalStyle": {
		"navigationBarTextStyle": "black",
		"navigationBarBackgroundColor": "#ffffff",
		"backgroundColor": "#f8f8f8"
	}
}




// {
// 	"path": "pages/classify/products/products",
// 	"style": {
// 		"navigationBarTitleText": "分类产品",
// 		"enablePullDownRefresh": false
// 	}
// },
// {
// 	"path": "pages/features/hpShare/hpShare",
// 	"style": {
// 		"navigationBarTitleText": "分享",
// 		// "enablePullDownRefresh": true,
// 		"titleNView": {
// 			"type": "transparent",
// 			"backgroundColor": "#fff"
// 		},
// 		"animationType": "slide-in-bottom"
// 	}
// },


// {
// 	"path": "pages/role/login/login",
// 	"style": {
// 		"navigationBarTitleText": "手机登录",
// 		"app-plus": {
// 			"bounce": true,
// 			"titleNView": {
// 				"backgroundColor": "#fff"
// 			},
// 			"animationType": "slide-in-bottom"
// 		}

// 	}
// }, {
// 	"path": "pages/role/reg/reg",
// 	"style": {
// 		"navigationBarTitleText": "注册",
// 		"app-plus": {
// 			"bounce": true,
// 			"titleNView": {
// 				"backgroundColor": "#fff"
// 			}
// 		}
// 	}
// }, {
// 	"path": "pages/role/pwd/pwd",
// 	"style": {
// 		"navigationBarTitleText": "找回密码",
// 		"app-plus": {
// 			"bounce": true,
// 			"titleNView": {
// 				"backgroundColor": "#fff"
// 			}
// 		}
// 	}
// }, 
// {
// 	"path": "pages/main/choiceness/choiceness",
// 	"style": {
// 		"navigationBarTitleText": "精选",
// 		"enablePullDownRefresh": true
// 	}
// }, {
// 	"path": "pages/main/youDian/youDian",
// 	"style": {
// 		"navigationBarTitleText": "优店",
// 		"enablePullDownRefresh": true
// 	}
// }, {
// 	"path": "pages/main/store/store",
// 	"style": {
// 		"enablePullDownRefresh": true,
// 		"app-plus": {
// 			"bounce": true,
// 			"titleNView": {
// 				// "type": "transparent",
// 				"backgroundColor": "#039798",
// 				"searchInput": {
// 					"backgroundColor": "rgba(255, 255, 255,1)",
// 					"borderRadius": "16px",
// 					"placeholder": "请输入关键词",
// 					"disabled": false,
// 					"placeholderColor": "#999"
// 				},
// 				"buttons": [{
// 					"text": "搜索",
// 					"fontSize": "15",
// 					"color": "#fff",
// 					"float": "right",
// 					"background": "rgba(0,0,0,0)",
// 					"width": "36px"
// 				}]
// 			}
// 		}
// 	}
// }, {
// 	"path": "pages/main/store/product/product",
// 	"style": {}
// }, {
// 	"path": "pages/main/details/details",
// 	"style": {
// 		"navigationBarTitleText": "商品详情",
// 		"navigationBarTextStyle": "white",
// 		"app-plus": {

// 			"bounce": true,
// 			"titleNView": {

// 				"type": "transparent",
// 				"backgroundColor": "#039798"
// 			}
// 		}

// 	}
// },
// {
// 	"path": "pages/main/details/history/history",
// 	"style": {
// 		"navigationBarTitleText": "出价记录",
// 		"enablePullDownRefresh": true,
// 		"app-plus": {
// 			"titleNView": {
// 				"backgroundColor": "#fff"
// 			}
// 		}
// 	}
// },
// {
// 	"path": "pages/features/auction/auction",
// 	"style": {
// 		"navigationBarTitleText": "我的拍卖",
// 		"enablePullDownRefresh": false,
// 		"app-plus": {
// 			"titleNView": {
// 				"backgroundColor": "#fff"
// 			}
// 		}
// 	}
// }, 
// {
// 	"path": "pages/features/merchant/merchant",
// 	"style": {
// 		"navigationBarTitleText": "合拍商户",
// 		"enablePullDownRefresh": true,
// 		"app-plus": {
// 			"titleNView": {
// 				"backgroundColor": "#fff",
// 				"buttons": [{
// 					"fontSrc": "/static/font/iconfont.ttf",
// 					"text": "\ue635",
// 					"fontSize": "24",
// 					"color": "#fff",
// 					"float": "right",
// 					"background": "rgba(0,0,0,0)",
// 					"width": "30px"
// 				}]
// 			}
// 		}
// 	}
// }, 
// {
// 	"path": "pages/features/order/order",
// 	"style": {
// 		"navigationBarTitleText": "我的订单",
// 		"enablePullDownRefresh": false,
// 		"app-plus": {
// 			"titleNView": false
// 		}
// 	}
// },
// {
// 	"path": "pages/main/search/search",
// 	"style": {
// 		"navigationBarTitleText": "搜索",
// 		"navigationBarTextStyle": "white",
// 		"enablePullDownRefresh": false,
// 		"app-plus": {
// 			"bounce": true,
// 			"titleNView": {

// 				"backgroundColor": "#039798",
// 				"searchInput": {
// 					"backgroundColor": "rgba(255, 255, 255,1)",
// 					"borderRadius": "16px",
// 					"placeholder": "请输入关键词",
// 					"disabled": false,
// 					"placeholderColor": "#999"
// 				},
// 				"buttons": [{
// 					"text": "搜索",
// 					"fontSize": "14",
// 					"color": "#fff",
// 					"float": "right",
// 					"background": "rgba(0,0,0,0)"
// 				}]
// 			}
// 		}
// 	}
// }, {
// 	"path": "pages/user/set/set",
// 	"style": {
// 		"navigationBarTitleText": "设置",
// 		"app-plus": {
// 			"titleNView": {
// 				"backgroundColor": "#fff"
// 			},
// 			"animationType": "slide-in-bottom"
// 		}
// 	}
// }, {
// 	"path": "pages/features/authentication/authentication",
// 	"style": {
// 		"navigationBarTitleText": "实名认证",
// 		"app-plus": {
// 			"titleNView": {
// 				"backgroundColor": "#fff"
// 			}
// 		}
// 	}
// },
// {
// 	"path": "pages/features/deposit/deposit",
// 	"style": {
// 		"navigationBarTitleText": "余额提现",
// 		"app-plus": {
// 			"titleNView": {
// 				"backgroundColor": "#fff"
// 			}
// 		}
// 	}
// }, {
// 	"path": "pages/features/cashRecharge/cashRecharge",
// 	"style": {
// 		"navigationBarTitleText": "充值",
// 		"app-plus": {
// 			"titleNView": {
// 				"backgroundColor": "#fff"
// 			}
// 		}
// 	}
// }, 
// {
// 	"path": "pages/features/comment/comment",
// 	"style": {
// 		"navigationBarTitleText": "意见反馈",
// 		"app-plus": {
// 			"titleNView": {
// 				"backgroundColor": "#fff"
// 			}
// 		}
// 	}
// }, {
// 	"path": "pages/features/bank/bank",
// 	"style": {
// 		"navigationBarTitleText": "银行卡",
// 		"app-plus": {
// 			"titleNView": {
// 				"backgroundColor": "#fff"
// 			}
// 		}
// 	}
// }, {
// 	"path": "pages/features/adress/adress",
// 	"style": {
// 		"navigationBarTitleText": "收货地址",
// 		"app-plus": {
// 			"titleNView": {
// 				"backgroundColor": "#fff"
// 			}
// 		}
// 	}
// }, {
// 	"path": "pages/features/newAdress/newAdress",
// 	"style": {
// 		"navigationBarTitleText": "新建地址",
// 		"app-plus": {
// 			"titleNView": {
// 				"backgroundColor": "#fff"
// 			},
// 			"animationType": "slide-in-bottom"
// 		}
// 	}
// },
// {
// 	"path": "pages/levelup/index/index",
// 	"style": {
// 		"navigationBarTitleText": "聚友空间",
// 		"app-plus": {
// 			"titleNView": {
// 				"backgroundColor": "#fff",
// 				"buttons": [{
// 						"fontSrc": "/static/font/iconfont.ttf",
// 						"text": "\ue64c",
// 						"fontSize": "20",
// 						"color": "#fff",
// 						"float": "right",
// 						"background": "rgba(0,0,0,0)",
// 						"width": "30px"
// 					},
// 					{
// 						"fontSrc": "/static/font/iconfont.ttf",
// 						"text": "\ue6af",
// 						"fontSize": "20",
// 						"color": "#fff",
// 						"float": "right",
// 						"background": "rgba(0,0,0,0)",
// 						"width": "36px"
// 					}
// 				]
// 			}
// 		}
// 	}
// }, 
// {
// 	"path": "pages/user/person/person",
// 	"style": {
// 		"navigationBarTitleText": "个人信息",
// 		"app-plus": {
// 			"titleNView": {
// 				"backgroundColor": "#fff"
// 			}
// 		}
// 	}
// }, {
// 	"path": "pages/main/hots/hots",
// 	"style": {
// 		"navigationBarTitleText": "热销",
// 		"app-plus": {

// 		}
// 	}
// },
// {
// 	"path": "pages/features/merchantSet/merchantSet",
// 	"style": {
// 		"navigationBarTitleText": "店铺设置",
// 		"app-plus": {
// 			"titleNView": {
// 				"backgroundColor": "#fff"
// 			},
// 			"animationType": "slide-in-bottom"
// 		}
// 	}
// }, {
// 	"path": "pages/features/merchantLocation/merchantLocation",
// 	"style": {
// 		"navigationBarTitleText": "退货地址管理",
// 		"app-plus": {
// 			"titleNView": {
// 				"backgroundColor": "#fff"

// 			},
// 			"animationType": "slide-in-bottom"
// 		}

// 	}
// }, {
// 	"path": "pages/features/merchantProduct/merchantProduct",
// 	"style": {
// 		"navigationBarTitleText": "商品管理",
// 		"enablePullDownRefresh": false,
// 		"app-plus": {
// 			"titleNView": {
// 				// "type": "transparent",
// 				"backgroundColor": "#039798",
// 				"animationType": "slide-in-bottom",
// 				"searchInput": {
// 					"backgroundColor": "rgba(255, 255, 255,1)",
// 					"borderRadius": "16px",
// 					"placeholder": "请输入关键词",
// 					"disabled": false,
// 					"placeholderColor": "#999"
// 				},
// 				"buttons": [{
// 					"text": "搜索",
// 					"fontSize": "15",
// 					"color": "#fff",
// 					"float": "right",
// 					"background": "rgba(0,0,0,0)",
// 					"width": "36px"
// 				}]
// 			}
// 		}
// 	}
// }, {
// 	"path": "pages/features/marchantPublish/marchantPublish",
// 	"style": {
// 		"navigationBarTitleText": "商品发布",
// 		"app-plus": {
// 			"titleNView": {
// 				"backgroundColor": "#fff"
// 			},
// 			"animationType": "slide-in-bottom"
// 		}
// 	}
// }, {
// 	"path": "pages/features/marchantOrders/marchantOrders",
// 	"style": {
// 		"navigationBarTitleText": "商户订单管理",
// 		"enablePullDownRefresh": false,
// 		"app-plus": {
// 			"titleNView": {
// 				"backgroundColor": "#fff"
// 			}
// 		}
// 	}
// }, {
// 	"path": "pages/features/marchantOrders/marchantOrders2",
// 	"style": {
// 		"navigationBarTitleText": "商户退货管理",
// 		"enablePullDownRefresh": false,
// 		"app-plus": {
// 			"titleNView": {
// 				"backgroundColor": "#fff"
// 			}
// 		}
// 	}
// }, {
// 	"path": "pages/features/marchantOrderDetail/marchantOrderDetail",
// 	"style": {
// 		"navigationBarTitleText": "订单详情"
// 	}
// }, {
// 	"path": "pages/features/marchantOrderHistory/marchantOrderHistory",
// 	"style": {
// 		"navigationBarTitleText": "成交记录",
// 		"enablePullDownRefresh": true
// 	}
//}, 
// {
// 	"path": "pages/user/setPayPass/setPayPass",
// 	"style": {
// 		"navigationBarTitleText": "修改支付密码",
// 		"enablePullDownRefresh": false
// 	}
// },
// {
// 	"path": "pages/features/sureAuction/sureAuction",
// 	"style": {
// 		"navigationBarTitleText": "确认拍品"
// 	}
// },
// {
// 	"path": "pages/features/bank/newBank/newBank",
// 	"style": {
// 		"navigationBarTitleText": "添加银行卡"
// 	}
// },

// , {
// 	"path": "pages/features/depositRecord/depositRecord",
// 	"style": {
// 		"navigationBarTitleText": "余额明细"
// 	}
// },
// {
// 	"path": "pages/features/success/success",
// 	"style": {
// 		"navigationBarTitleText": "支付成功",
// 		"animationType": "slide-in-bottom"
// 	}
// }, {
// 	"path": "pages/features/attention/attention",
// 	"style": {
// 		"navigationBarTitleText": "关注"
// 	}
// },
// {
// 	"path": "pages/features/marchantDetail/marchantDetail",
// 	"style": {
// 		"navigationBarTitleText": "商品信息",
// 		"titleNView": {
// 			"type": "transparent",
// 			"backgroundColor": "#039798"
// 		}
// 	}
// }, {
// 	"path": "pages/features/transform/transform",
// 	"style": {
// 		"navigationBarTitleText": "积分转化",
// 		"titleNView": {
// 			"backgroundColor": "#fff"
// 		}
// 	}
// }, {
// 	"path": "pages/features/myAuction/myAuction",
// 	"style": {
// 		"navigationBarTitleText": "我的参拍",
// 		"enablePullDownRefresh": true,
// 		"titleNView": {
// 			"backgroundColor": "#fff"
// 		}
// 	}
// }, 
// {
// 	"path": "pages/features/order/orderDetail/orderDetail",
// 	"style": {
// 		"navigationBarTitleText": "订单详情",
// 		"navigationBarTextStyle": "white",
// 		"enablePullDownRefresh": true,
// 		"titleNView": {
// 			"backgroundColor": "#50ab9f"
// 		}
// 	}
// }, {
// 	"path": "pages/features/ems/ems",
// 	"style": {
// 		"navigationBarTitleText": "物流信息",
// 		// "enablePullDownRefresh": true,
// 		"titleNView": {
// 			"backgroundColor": "#fff"
// 		}
// 	}
// },
// {
// 	"path": "pages/levelup/levelup/levelup",
// 	"style": {
// 		"navigationBarTitleText": "升星",
// 		// "enablePullDownRefresh": true,
// 		"titleNView": {
// 			"backgroundColor": "#fff"
// 		},
// 		"animationType": "slide-in-bottom"
// 	}
// },
// {
// 	"path": "pages/levelup/complaint/complaint",
// 	"style": {
// 		"navigationBarTitleText": "发起投诉",
// 		// "enablePullDownRefresh": true,
// 		"titleNView": {
// 			"backgroundColor": "#fff"
// 		}
// 	}
// },
// {
// 	"path": "pages/levelup/success/success",
// 	"style": {
// 		"navigationBarTitleText": "支付成功",
// 		// "enablePullDownRefresh": true,
// 		"titleNView": {
// 			"backgroundColor": "#fff"
// 		}
// 	}
// },
// {
// 	"path": "pages/levelup/share/share",
// 	"style": {
// 		"navigationBarTitleText": "分享",
// 		"titleNView": {
// 			"type": "transparent",
// 			"backgroundColor": "#fff"
// 		},
// 		"animationType": "slide-in-bottom"
// 	}
// },
// {
// 	"path": "pages/levelup/set/set",
// 	"style": {
// 		"navigationBarTitleText": "设置",
// 		// "enablePullDownRefresh": true,
// 		"titleNView": {
// 			"backgroundColor": "#fff"
// 		}
// 	}
// },
// {
// 	"path": "pages/levelup/set/updateMsg/updateMsg",
// 	"style": {
// 		"navigationBarTitleText": "修改信息",
// 		// "enablePullDownRefresh": true,
// 		"titleNView": {
// 			"backgroundColor": "#fff"
// 		},
// 		"animationType": "slide-in-bottom"
// 	}
// },
// {
// 	"path": "pages/levelup/regNewChannel/regNewChannel",
// 	"style": {
// 		"navigationBarTitleText": "注册新商户",
// 		// "enablePullDownRefresh": true,
// 		"titleNView": {
// 			"backgroundColor": "#fff"
// 		},
// 		"animationType": "slide-in-bottom"
// 	}
// },

// {
// 	"path": "pages/main/note/note",
// 	"style": {
// 		"navigationBarTitleText": "隐私条款"
// 	}
// }, {
// 	"path": "pages/main/helps/helps",
// 	"style": {
// 		"navigationBarTitleText": "新手引导"
// 	}
// },
// {
// 	"path": "pages/features/marchantAuthenticate/marchantAuthenticate",
// 	"style": {
// 		"navigationBarTitleText": "商户认证"
// 	}
// }, 
// {
// 	"path": "pages/user/notes/notes",
// 	"style": {
// 		"navigationBarTitleText": "商户合约"
// 	},
// 	"animationType": "slide-in-bottom"
// },
// {
// 	"path": "pages/features/createOrder/createOrder",
// 	"style": {
// 		"navigationBarTitleText": "提交订单",
// 		"enablePullDownRefresh": false,
// 		"titleNView": {
// 			"backgroundColor": "#f4f4f4"
// 		}
// 	}
// }, 
// {
// 	"path": "pages/errors/errors",
// 	"style": {
// 		"navigationBarTitleText": "奔溃啦",
// 		"titleNView": {
// 			"backgroundColor": "#039798"
// 		}
// 	}
// }

// , {
// 	"path": "pages/classify/products_s/products_s",
// 	"style": {}
// }, {
// 	"path": "pages/features/refundList/refundList",
// 	"style": {
// 		"enablePullDownRefresh": true,
// 		"navigationBarTitleText": "退货/退款",
// 		"titleNView": {}
// 	}
// }, {
// 	"path": "pages/features/refundDetail/refundDetail",
// 	"style": {
// 		"navigationBarTitleText": "退款详情",
// 		"navigationBarTextStyle": "white",
// 		"titleNView": {
// 			"backgroundColor": "#50ab9f"
// 		}
// 	}
// }, {
// 	"path": "pages/features/refundAction/refundAction",
// 	"style": {
// 		"navigationBarTitleText": "退货退款"
// 	}
// }, {
// 	"path": "pages/features/refundApply/refundApply",
// 	"style": {
// 		"navigationBarTitleText": "退款申请"
// 	}
// },

// {
// 	"path": "pages/features/refundProgress/refundProgress",
// 	"style": {
// 		"navigationBarTitleText": "退款进度"
// 	}
// },
// {
// 	"path": "pages/features/refundEms/refundEms",
// 	"style": {
// 		"navigationBarTitleText": "退款物流"
// 	}
// }, {
// 	"path": "pages/success/success",
// 	"style": {
// 		"navigationBarTitleText": "支付结果",
// 		"titleNView": false

// 	}
// }, {
// 	"path": "pages/role/bund/bund",
// 	"style": {
// 		"navigationBarTitleText": "绑定手机号"
// 	}
// }, {
// 	"path": "pages/role/pLogin/pLogin",
// 	"style": {
// 		"navigationBarTitleText": "密码登录"
// 	}
// }, {
// 	"path": "pages/role/loginNext/loginNext",
// 	"style": {
// 		"navigationBarTitleText": "输入验证码"
// 	}
// }, {
// 	"path": "pages/user/mpn/mpn",
// 	"style": {}
// }, {
// 	"path": "pages/features/flashSale/flashSale",
// 	"style": {
// 		"titleNView": false
// 	}
// }

// , {
// 	"path": "pages/role/wxLogin/wxLogin",
// 	"style": {
// 		"navigationBarTitleText": "微信一键登录",
// 		"enablePullDownRefresh": false
// 	}

// }, {
// 	"path": "pages/role/replacePhone/replacePhone",
// 	"style": {
// 		"navigationBarTitleText": "修改手机号",
// 		"enablePullDownRefresh": false
// 	}

// }, {
// 	"path": "pages/role/updatedPass/updatedPass",
// 	"style": {
// 		"navigationBarTitleText": "修改登录密码",
// 		"enablePullDownRefresh": false
// 	}

// }, {
// 	"path": "pages/features/share/share",
// 	"style": {
// 		"navigationBarTitleText": "分享",
// 		"enablePullDownRefresh": false
// 	}

// }, {
// 	"path": "pages/features/help/help",
// 	"style": {
// 		"navigationBarTitleText": "使用帮助",
// 		"enablePullDownRefresh": false
// 	}

// }

// , {
// 	"path": "pages/land/land",
// 	"style": {
// 		"navigationBarTitleText": "邵氏消防",
// 		"enablePullDownRefresh": false,
// 		"titleNView": false
// 	}

// },
